{
  "development": {
    "username": "benefy",
    "password": "benefy",
    "database": "benefy-test",
    "host": "127.0.0.1",
    "dialect": "mysql",
    "operatorsAliases": 0
  },
  "test": {
    "username": "benefy",
    "password": "benefy",
    "database": "benefy-test",
    "host": "127.0.0.1",
    "dialect": "mysql",
    "operatorsAliases": 0
  },
  "production": {
    "username": "benefy",
    "password": "benefy",
    "database": "benefy-test",
    "host": "127.0.0.1",
    "dialect": "mysql",
    "operatorsAliases": 0,
    "logging": false
  }
}
